(kicad_pcb (version 3) (host pcbnew "(2013-may-18)-stable")

  (general
    (links 20)
    (no_connects 0)
    (area 57.279999 38.119999 107.480001 53.320001)
    (thickness 1.6)
    (drawings 8)
    (tracks 75)
    (zones 0)
    (modules 11)
    (nets 11)
  )

  (page A3)
  (layers
    (15 F.Cu signal)
    (0 B.Cu signal)
    (16 B.Adhes user)
    (17 F.Adhes user)
    (18 B.Paste user)
    (19 F.Paste user)
    (20 B.SilkS user)
    (21 F.SilkS user)
    (22 B.Mask user)
    (23 F.Mask user)
    (24 Dwgs.User user)
    (25 Cmts.User user)
    (26 Eco1.User user)
    (27 Eco2.User user)
    (28 Edge.Cuts user)
  )

  (setup
    (last_trace_width 0.254)
    (trace_clearance 0.254)
    (zone_clearance 0.508)
    (zone_45_only no)
    (trace_min 0.254)
    (segment_width 0.2)
    (edge_width 0.2)
    (via_size 0.889)
    (via_drill 0.635)
    (via_min_size 0.889)
    (via_min_drill 0.508)
    (uvia_size 0.508)
    (uvia_drill 0.127)
    (uvias_allowed no)
    (uvia_min_size 0.508)
    (uvia_min_drill 0.127)
    (pcb_text_width 0.3)
    (pcb_text_size 1.5 1.5)
    (mod_edge_width 0.15)
    (mod_text_size 1 1)
    (mod_text_width 0.15)
    (pad_size 1.397 1.397)
    (pad_drill 0.8128)
    (pad_to_mask_clearance 0)
    (aux_axis_origin 0 0)
    (visible_elements FFFFFFBF)
    (pcbplotparams
      (layerselection 32768)
      (usegerberextensions true)
      (excludeedgelayer true)
      (linewidth 0.150000)
      (plotframeref false)
      (viasonmask false)
      (mode 1)
      (useauxorigin false)
      (hpglpennumber 1)
      (hpglpenspeed 20)
      (hpglpendiameter 15)
      (hpglpenoverlay 2)
      (psnegative false)
      (psa4output false)
      (plotreference true)
      (plotvalue true)
      (plotothertext true)
      (plotinvisibletext false)
      (padsonsilk false)
      (subtractmaskfromsilk false)
      (outputformat 1)
      (mirror false)
      (drillshape 0)
      (scaleselection 1)
      (outputdirectory ../../../../temp/esp-ws2812/))
  )

  (net 0 "")
  (net 1 3V3)
  (net 2 5V)
  (net 3 GND)
  (net 4 "LOGIC HIGH")
  (net 5 LOGIC_LOW)
  (net 6 N-0000010)
  (net 7 N-000003)
  (net 8 N-000005)
  (net 9 N-000008)
  (net 10 N-000009)

  (net_class Default "This is the default net class."
    (clearance 0.254)
    (trace_width 0.254)
    (via_dia 0.889)
    (via_drill 0.635)
    (uvia_dia 0.508)
    (uvia_drill 0.127)
    (add_net "")
    (add_net 3V3)
    (add_net 5V)
    (add_net GND)
    (add_net "LOGIC HIGH")
    (add_net LOGIC_LOW)
    (add_net N-0000010)
    (add_net N-000003)
    (add_net N-000005)
    (add_net N-000008)
    (add_net N-000009)
  )

  (module SOT223 (layer F.Cu) (tedit 561A5FBF) (tstamp 55B1587E)
    (at 81.51 43.18 90)
    (descr "module CMS SOT223 4 pins")
    (tags "CMS SOT")
    (path /55B154D1)
    (attr smd)
    (fp_text reference U1 (at 0 -0.762 90) (layer F.SilkS) hide
      (effects (font (size 1.016 1.016) (thickness 0.2032)))
    )
    (fp_text value AMS1117 (at 8.255 0.635 180) (layer F.SilkS)
      (effects (font (size 1.016 1.016) (thickness 0.2032)))
    )
    (fp_line (start -3.556 1.524) (end -3.556 4.572) (layer F.SilkS) (width 0.2032))
    (fp_line (start -3.556 4.572) (end 3.556 4.572) (layer F.SilkS) (width 0.2032))
    (fp_line (start 3.556 4.572) (end 3.556 1.524) (layer F.SilkS) (width 0.2032))
    (fp_line (start -3.556 -1.524) (end -3.556 -2.286) (layer F.SilkS) (width 0.2032))
    (fp_line (start -3.556 -2.286) (end -2.032 -4.572) (layer F.SilkS) (width 0.2032))
    (fp_line (start -2.032 -4.572) (end 2.032 -4.572) (layer F.SilkS) (width 0.2032))
    (fp_line (start 2.032 -4.572) (end 3.556 -2.286) (layer F.SilkS) (width 0.2032))
    (fp_line (start 3.556 -2.286) (end 3.556 -1.524) (layer F.SilkS) (width 0.2032))
    (pad 4 smd rect (at 0 -3.302 90) (size 3.6576 2.032)
      (layers F.Cu F.Paste F.Mask)
    )
    (pad 2 smd rect (at 0 3.302 90) (size 1.016 2.032)
      (layers F.Cu F.Paste F.Mask)
      (net 1 3V3)
    )
    (pad 3 smd rect (at 2.286 3.302 90) (size 1.016 2.032)
      (layers F.Cu F.Paste F.Mask)
      (net 2 5V)
    )
    (pad 1 smd rect (at -2.286 3.302 90) (size 1.016 2.032)
      (layers F.Cu F.Paste F.Mask)
      (net 3 GND)
    )
    (model smd/SOT223.wrl
      (at (xyz 0 0 0))
      (scale (xyz 0.4 0.4 0.4))
      (rotate (xyz 0 0 0))
    )
  )

  (module SIL-3 (layer F.Cu) (tedit 561A5740) (tstamp 55B24D8B)
    (at 101.195 45.72 90)
    (descr "Connecteur 3 pins")
    (tags "CONN DEV")
    (path /55B158BC)
    (fp_text reference K2 (at 6.985 0.635 90) (layer F.SilkS) hide
      (effects (font (size 1.7907 1.07696) (thickness 0.26924)))
    )
    (fp_text value WS2812 (at 10.16 0 90) (layer F.SilkS)
      (effects (font (size 1.524 1.016) (thickness 0.254)))
    )
    (fp_line (start -3.81 1.27) (end -3.81 -1.27) (layer F.SilkS) (width 0.3048))
    (fp_line (start -3.81 -1.27) (end 3.81 -1.27) (layer F.SilkS) (width 0.3048))
    (fp_line (start 3.81 -1.27) (end 3.81 1.27) (layer F.SilkS) (width 0.3048))
    (fp_line (start 3.81 1.27) (end -3.81 1.27) (layer F.SilkS) (width 0.3048))
    (fp_line (start -1.27 -1.27) (end -1.27 1.27) (layer F.SilkS) (width 0.3048))
    (pad 1 thru_hole rect (at -2.54 0 90) (size 1.397 1.397) (drill 0.8128)
      (layers *.Cu *.Mask F.SilkS)
      (net 3 GND)
    )
    (pad 2 thru_hole circle (at 0 0 90) (size 1.397 1.397) (drill 0.8128)
      (layers *.Cu *.Mask F.SilkS)
      (net 9 N-000008)
    )
    (pad 3 thru_hole circle (at 2.54 0 90) (size 1.397 1.397) (drill 0.8128)
      (layers *.Cu *.Mask F.SilkS)
      (net 2 5V)
    )
  )

  (module SIL-2 (layer F.Cu) (tedit 561A67F3) (tstamp 55B158E0)
    (at 101.83 51.435 180)
    (descr "Connecteurs 2 pins")
    (tags "CONN DEV")
    (path /55B15825)
    (fp_text reference P1 (at 0 3.175 180) (layer F.SilkS) hide
      (effects (font (size 1.72974 1.08712) (thickness 0.27178)))
    )
    (fp_text value POWER (at 0 -4.445 180) (layer F.SilkS)
      (effects (font (size 1.524 1.016) (thickness 0.254)))
    )
    (fp_line (start -2.54 1.27) (end -2.54 -1.27) (layer F.SilkS) (width 0.3048))
    (fp_line (start -2.54 -1.27) (end 2.54 -1.27) (layer F.SilkS) (width 0.3048))
    (fp_line (start 2.54 -1.27) (end 2.54 1.27) (layer F.SilkS) (width 0.3048))
    (fp_line (start 2.54 1.27) (end -2.54 1.27) (layer F.SilkS) (width 0.3048))
    (pad 1 thru_hole rect (at -1.27 0 180) (size 1.397 1.397) (drill 0.8128)
      (layers *.Cu *.Mask F.SilkS)
      (net 3 GND)
    )
    (pad 2 thru_hole circle (at 1.27 0 180) (size 1.397 1.397) (drill 0.8128)
      (layers *.Cu *.Mask F.SilkS)
      (net 2 5V)
    )
  )

  (module C1.5V8H (layer F.Cu) (tedit 561A5744) (tstamp 55B1FFF7)
    (at 104.37 45.72 90)
    (path /55B1F4FF)
    (fp_text reference C2 (at 10.795 0 90) (layer F.SilkS)
      (effects (font (size 1.016 1.016) (thickness 0.2032)))
    )
    (fp_text value 1000uF (at 0.127 11.684 90) (layer F.SilkS)
      (effects (font (size 1.016 1.016) (thickness 0.2032)))
    )
    (fp_text user + (at 1.905 3.683 90) (layer F.SilkS)
      (effects (font (size 1.524 1.524) (thickness 0.3048)))
    )
    (fp_line (start -4.064 15.24) (end 4.064 15.24) (layer F.SilkS) (width 0.381))
    (fp_line (start 4.064 2.54) (end -4.064 2.54) (layer F.SilkS) (width 0.381))
    (fp_line (start -4.064 2.54) (end -4.064 15.24) (layer F.SilkS) (width 0.381))
    (fp_line (start 4.064 2.54) (end 4.064 15.24) (layer F.SilkS) (width 0.381))
    (fp_line (start -1.905 0) (end -1.905 2.54) (layer F.SilkS) (width 0.381))
    (fp_line (start 1.905 0) (end 1.905 2.54) (layer F.SilkS) (width 0.381))
    (pad 1 thru_hole rect (at 1.905 0 90) (size 1.651 1.651) (drill 0.8128)
      (layers *.Cu *.Mask F.SilkS)
      (net 2 5V)
    )
    (pad 2 thru_hole circle (at -1.905 0 90) (size 1.651 1.651) (drill 0.8128)
      (layers *.Cu *.Mask F.SilkS)
      (net 3 GND)
    )
    (model discret/c_horiz_c1v7.wrl
      (at (xyz 0 0 0))
      (scale (xyz 1.5 1.5 1.5))
      (rotate (xyz 0 0 0))
    )
  )

  (module C1V5 (layer F.Cu) (tedit 55B26809) (tstamp 55B158D6)
    (at 72.62 41.275)
    (descr "Condensateur e = 1 pas")
    (tags C)
    (path /55B1F3E4)
    (fp_text reference C1 (at 0 -4.445) (layer F.SilkS)
      (effects (font (size 0.762 0.762) (thickness 0.127)))
    )
    (fp_text value "22 uF" (at 0 1.27) (layer F.SilkS)
      (effects (font (size 0.762 0.635) (thickness 0.127)))
    )
    (fp_text user + (at -2.286 0) (layer F.SilkS)
      (effects (font (size 0.762 0.762) (thickness 0.2032)))
    )
    (fp_circle (center 0 0) (end 0.127 -2.54) (layer F.SilkS) (width 0.127))
    (pad 1 thru_hole rect (at -1.27 0) (size 1.397 1.397) (drill 0.8128)
      (layers *.Cu *.Mask F.SilkS)
      (net 1 3V3)
    )
    (pad 2 thru_hole circle (at 1.27 0) (size 1.397 1.397) (drill 0.8128)
      (layers *.Cu *.Mask F.SilkS)
      (net 3 GND)
    )
    (model discret/c_vert_c1v5.wrl
      (at (xyz 0 0 0))
      (scale (xyz 1 1 1))
      (rotate (xyz 0 0 0))
    )
  )

  (module TO92DGS (layer F.Cu) (tedit 561A6A5E) (tstamp 55B1586E)
    (at 88.495 49.53 225)
    (descr "Transistor TO92 brochage type BC237")
    (tags "TR TO92")
    (path /55B15672)
    (fp_text reference Q1 (at 5.388154 -4.490128 225) (layer F.SilkS)
      (effects (font (size 1.016 1.016) (thickness 0.2032)))
    )
    (fp_text value 2N7000 (at 3.592102 -6.286179 315) (layer F.SilkS)
      (effects (font (size 1.016 1.016) (thickness 0.2032)))
    )
    (fp_line (start -1.27 2.54) (end 2.54 -1.27) (layer F.SilkS) (width 0.3048))
    (fp_line (start 2.54 -1.27) (end 2.54 -2.54) (layer F.SilkS) (width 0.3048))
    (fp_line (start 2.54 -2.54) (end 1.27 -3.81) (layer F.SilkS) (width 0.3048))
    (fp_line (start 1.27 -3.81) (end -1.27 -3.81) (layer F.SilkS) (width 0.3048))
    (fp_line (start -1.27 -3.81) (end -3.81 -1.27) (layer F.SilkS) (width 0.3048))
    (fp_line (start -3.81 -1.27) (end -3.81 1.27) (layer F.SilkS) (width 0.3048))
    (fp_line (start -3.81 1.27) (end -2.54 2.54) (layer F.SilkS) (width 0.3048))
    (fp_line (start -2.54 2.54) (end -1.27 2.54) (layer F.SilkS) (width 0.3048))
    (pad D thru_hole rect (at 1.27 -1.27 225) (size 1.397 1.397) (drill 0.8128)
      (layers *.Cu *.Mask F.SilkS)
      (net 4 "LOGIC HIGH")
    )
    (pad G thru_hole circle (at -1.27 -1.27 225) (size 1.397 1.397) (drill 0.8128)
      (layers *.Cu *.Mask F.SilkS)
      (net 1 3V3)
    )
    (pad S thru_hole circle (at -1.27 1.27 225) (size 1.397 1.397) (drill 0.8128)
      (layers *.Cu *.Mask F.SilkS)
      (net 5 LOGIC_LOW)
    )
    (model discret/to98.wrl
      (at (xyz 0 0 0))
      (scale (xyz 1 1 1))
      (rotate (xyz 0 0 0))
    )
  )

  (module ESP-01 (layer B.Cu) (tedit 561A5DB2) (tstamp 561A5EAB)
    (at 61.19 45.72)
    (path /56128CB9)
    (fp_text reference U2 (at -13 2) (layer B.SilkS)
      (effects (font (size 1 1) (thickness 0.15)) (justify mirror))
    )
    (fp_text value ESP8266 (at -12.5 -2) (layer B.SilkS)
      (effects (font (size 1 1) (thickness 0.15)) (justify mirror))
    )
    (fp_line (start 3 5) (end 3 7.5) (layer B.SilkS) (width 0.15))
    (fp_line (start 3 7.5) (end -23 7.5) (layer B.SilkS) (width 0.15))
    (fp_line (start -23 7.5) (end -23 5) (layer B.SilkS) (width 0.15))
    (fp_line (start -22.5 -7.5) (end 3 -7.5) (layer B.SilkS) (width 0.15))
    (fp_line (start 3 -7.5) (end 3 -4) (layer B.SilkS) (width 0.15))
    (fp_line (start -22.5 -7.5) (end -23 -7.5) (layer B.SilkS) (width 0.15))
    (fp_line (start -23 -7.5) (end -23 -5) (layer B.SilkS) (width 0.15))
    (fp_line (start -23 5) (end -23 -5) (layer B.SilkS) (width 0.15))
    (fp_line (start 3 5) (end 3 -4) (layer B.SilkS) (width 0.15))
    (pad 8 thru_hole circle (at 1.27 3.81) (size 1.397 1.397) (drill 0.8128)
      (layers *.Cu *.Mask B.SilkS)
      (net 1 3V3)
    )
    (pad 1 thru_hole circle (at 1.27 1.27) (size 1.397 1.397) (drill 0.8128)
      (layers *.Cu *.Mask B.SilkS)
      (net 8 N-000005)
    )
    (pad 3 thru_hole circle (at 1.27 -1.27) (size 1.397 1.397) (drill 0.8128)
      (layers *.Cu *.Mask B.SilkS)
      (net 7 N-000003)
    )
    (pad 16 thru_hole circle (at 1.27 -3.81) (size 1.397 1.397) (drill 0.8128)
      (layers *.Cu *.Mask B.SilkS)
      (net 10 N-000009)
    )
    (pad 15 thru_hole circle (at -1.27 3.81) (size 1.4097 1.4097) (drill 0.8128)
      (layers *.Cu *.Mask B.SilkS)
      (net 6 N-0000010)
    )
    (pad 12 thru_hole circle (at -1.27 1.27) (size 1.4097 1.4097) (drill 0.8128)
      (layers *.Cu *.Mask B.SilkS)
      (net 5 LOGIC_LOW)
    )
    (pad 11 thru_hole circle (at -1.27 -1.27) (size 1.397 1.397) (drill 0.8128)
      (layers *.Cu *.Mask B.SilkS)
    )
    (pad 9 thru_hole circle (at -1.27 -3.81) (size 1.397 1.397) (drill 0.8128)
      (layers *.Cu *.Mask B.SilkS)
      (net 3 GND)
    )
  )

  (module R3 (layer F.Cu) (tedit 4E4C0E65) (tstamp 55B158A5)
    (at 68.175 45.72 270)
    (descr "Resitance 3 pas")
    (tags R)
    (path /55B156CB)
    (autoplace_cost180 10)
    (fp_text reference R3 (at 0 0.127 270) (layer F.SilkS) hide
      (effects (font (size 1.397 1.27) (thickness 0.2032)))
    )
    (fp_text value 10k (at 0 0.127 270) (layer F.SilkS)
      (effects (font (size 1.397 1.27) (thickness 0.2032)))
    )
    (fp_line (start -3.81 0) (end -3.302 0) (layer F.SilkS) (width 0.2032))
    (fp_line (start 3.81 0) (end 3.302 0) (layer F.SilkS) (width 0.2032))
    (fp_line (start 3.302 0) (end 3.302 -1.016) (layer F.SilkS) (width 0.2032))
    (fp_line (start 3.302 -1.016) (end -3.302 -1.016) (layer F.SilkS) (width 0.2032))
    (fp_line (start -3.302 -1.016) (end -3.302 1.016) (layer F.SilkS) (width 0.2032))
    (fp_line (start -3.302 1.016) (end 3.302 1.016) (layer F.SilkS) (width 0.2032))
    (fp_line (start 3.302 1.016) (end 3.302 0) (layer F.SilkS) (width 0.2032))
    (fp_line (start -3.302 -0.508) (end -2.794 -1.016) (layer F.SilkS) (width 0.2032))
    (pad 1 thru_hole circle (at -3.81 0 270) (size 1.397 1.397) (drill 0.8128)
      (layers *.Cu *.Mask F.SilkS)
      (net 1 3V3)
    )
    (pad 2 thru_hole circle (at 3.81 0 270) (size 1.397 1.397) (drill 0.8128)
      (layers *.Cu *.Mask F.SilkS)
      (net 5 LOGIC_LOW)
    )
    (model discret/resistor.wrl
      (at (xyz 0 0 0))
      (scale (xyz 0.3 0.3 0.3))
      (rotate (xyz 0 0 0))
    )
  )

  (module R3 (layer F.Cu) (tedit 4E4C0E65) (tstamp 55B158B2)
    (at 94.21 46.355 90)
    (descr "Resitance 3 pas")
    (tags R)
    (path /55B15730)
    (autoplace_cost180 10)
    (fp_text reference R4 (at 0 0.127 90) (layer F.SilkS) hide
      (effects (font (size 1.397 1.27) (thickness 0.2032)))
    )
    (fp_text value 10k (at 0 0.127 90) (layer F.SilkS)
      (effects (font (size 1.397 1.27) (thickness 0.2032)))
    )
    (fp_line (start -3.81 0) (end -3.302 0) (layer F.SilkS) (width 0.2032))
    (fp_line (start 3.81 0) (end 3.302 0) (layer F.SilkS) (width 0.2032))
    (fp_line (start 3.302 0) (end 3.302 -1.016) (layer F.SilkS) (width 0.2032))
    (fp_line (start 3.302 -1.016) (end -3.302 -1.016) (layer F.SilkS) (width 0.2032))
    (fp_line (start -3.302 -1.016) (end -3.302 1.016) (layer F.SilkS) (width 0.2032))
    (fp_line (start -3.302 1.016) (end 3.302 1.016) (layer F.SilkS) (width 0.2032))
    (fp_line (start 3.302 1.016) (end 3.302 0) (layer F.SilkS) (width 0.2032))
    (fp_line (start -3.302 -0.508) (end -2.794 -1.016) (layer F.SilkS) (width 0.2032))
    (pad 1 thru_hole circle (at -3.81 0 90) (size 1.397 1.397) (drill 0.8128)
      (layers *.Cu *.Mask F.SilkS)
      (net 2 5V)
    )
    (pad 2 thru_hole circle (at 3.81 0 90) (size 1.397 1.397) (drill 0.8128)
      (layers *.Cu *.Mask F.SilkS)
      (net 4 "LOGIC HIGH")
    )
    (model discret/resistor.wrl
      (at (xyz 0 0 0))
      (scale (xyz 0.3 0.3 0.3))
      (rotate (xyz 0 0 0))
    )
  )

  (module R3 (layer F.Cu) (tedit 4E4C0E65) (tstamp 55B249C3)
    (at 65.635 45.72 270)
    (descr "Resitance 3 pas")
    (tags R)
    (path /55B2499D)
    (autoplace_cost180 10)
    (fp_text reference R1 (at 0 0.127 270) (layer F.SilkS) hide
      (effects (font (size 1.397 1.27) (thickness 0.2032)))
    )
    (fp_text value 10k (at 0 0.127 270) (layer F.SilkS)
      (effects (font (size 1.397 1.27) (thickness 0.2032)))
    )
    (fp_line (start -3.81 0) (end -3.302 0) (layer F.SilkS) (width 0.2032))
    (fp_line (start 3.81 0) (end 3.302 0) (layer F.SilkS) (width 0.2032))
    (fp_line (start 3.302 0) (end 3.302 -1.016) (layer F.SilkS) (width 0.2032))
    (fp_line (start 3.302 -1.016) (end -3.302 -1.016) (layer F.SilkS) (width 0.2032))
    (fp_line (start -3.302 -1.016) (end -3.302 1.016) (layer F.SilkS) (width 0.2032))
    (fp_line (start -3.302 1.016) (end 3.302 1.016) (layer F.SilkS) (width 0.2032))
    (fp_line (start 3.302 1.016) (end 3.302 0) (layer F.SilkS) (width 0.2032))
    (fp_line (start -3.302 -0.508) (end -2.794 -1.016) (layer F.SilkS) (width 0.2032))
    (pad 1 thru_hole circle (at -3.81 0 270) (size 1.397 1.397) (drill 0.8128)
      (layers *.Cu *.Mask F.SilkS)
      (net 7 N-000003)
    )
    (pad 2 thru_hole circle (at 3.81 0 270) (size 1.397 1.397) (drill 0.8128)
      (layers *.Cu *.Mask F.SilkS)
      (net 1 3V3)
    )
    (model discret/resistor.wrl
      (at (xyz 0 0 0))
      (scale (xyz 0.3 0.3 0.3))
      (rotate (xyz 0 0 0))
    )
  )

  (module R3 (layer F.Cu) (tedit 4E4C0E65) (tstamp 56129605)
    (at 96.75 46.355 270)
    (descr "Resitance 3 pas")
    (tags R)
    (path /5612985E)
    (autoplace_cost180 10)
    (fp_text reference R5 (at 0 0.127 270) (layer F.SilkS) hide
      (effects (font (size 1.397 1.27) (thickness 0.2032)))
    )
    (fp_text value 470 (at 0 0.127 270) (layer F.SilkS)
      (effects (font (size 1.397 1.27) (thickness 0.2032)))
    )
    (fp_line (start -3.81 0) (end -3.302 0) (layer F.SilkS) (width 0.2032))
    (fp_line (start 3.81 0) (end 3.302 0) (layer F.SilkS) (width 0.2032))
    (fp_line (start 3.302 0) (end 3.302 -1.016) (layer F.SilkS) (width 0.2032))
    (fp_line (start 3.302 -1.016) (end -3.302 -1.016) (layer F.SilkS) (width 0.2032))
    (fp_line (start -3.302 -1.016) (end -3.302 1.016) (layer F.SilkS) (width 0.2032))
    (fp_line (start -3.302 1.016) (end 3.302 1.016) (layer F.SilkS) (width 0.2032))
    (fp_line (start 3.302 1.016) (end 3.302 0) (layer F.SilkS) (width 0.2032))
    (fp_line (start -3.302 -0.508) (end -2.794 -1.016) (layer F.SilkS) (width 0.2032))
    (pad 1 thru_hole circle (at -3.81 0 270) (size 1.397 1.397) (drill 0.8128)
      (layers *.Cu *.Mask F.SilkS)
      (net 4 "LOGIC HIGH")
    )
    (pad 2 thru_hole circle (at 3.81 0 270) (size 1.397 1.397) (drill 0.8128)
      (layers *.Cu *.Mask F.SilkS)
      (net 9 N-000008)
    )
    (model discret/resistor.wrl
      (at (xyz 0 0 0))
      (scale (xyz 0.3 0.3 0.3))
      (rotate (xyz 0 0 0))
    )
  )

  (gr_line (start 57.38 38.22) (end 57.38 39.22) (angle 90) (layer Edge.Cuts) (width 0.2))
  (gr_line (start 57.38 53.22) (end 57.38 52.22) (angle 90) (layer Edge.Cuts) (width 0.2))
  (gr_line (start 107.38 53.22) (end 57.38 53.22) (angle 90) (layer Edge.Cuts) (width 0.2))
  (gr_line (start 107.38 52.22) (end 107.38 53.22) (angle 90) (layer Edge.Cuts) (width 0.2))
  (gr_line (start 107.38 38.22) (end 107.38 39.22) (angle 90) (layer Edge.Cuts) (width 0.2))
  (gr_line (start 57.38 38.22) (end 107.38 38.22) (angle 90) (layer Edge.Cuts) (width 0.2))
  (gr_line (start 107.38 39.22) (end 107.38 52.22) (angle 90) (layer Edge.Cuts) (width 0.2))
  (gr_line (start 57.38 39.22) (end 57.38 52.22) (angle 90) (layer Edge.Cuts) (width 0.2))

  (segment (start 71.35 47.625) (end 85.955 47.625) (width 0.254) (layer F.Cu) (net 1))
  (segment (start 68.175 47.625) (end 71.35 47.625) (width 0.254) (layer F.Cu) (net 1))
  (segment (start 87.225 46.355) (end 87.225 43.18) (width 0.254) (layer F.Cu) (net 1) (tstamp 561A69B5))
  (segment (start 85.955 47.625) (end 87.225 46.355) (width 0.254) (layer F.Cu) (net 1) (tstamp 561A69B1))
  (segment (start 84.812 43.18) (end 87.225 43.18) (width 0.254) (layer F.Cu) (net 1))
  (segment (start 87.225 43.18) (end 89.765 43.18) (width 0.254) (layer F.Cu) (net 1) (tstamp 561A69B9))
  (segment (start 89.765 43.18) (end 90.291051 43.706051) (width 0.254) (layer F.Cu) (net 1) (tstamp 561A6996))
  (segment (start 90.291051 43.706051) (end 90.291051 49.53) (width 0.254) (layer F.Cu) (net 1) (tstamp 561A6997))
  (segment (start 68.175 46.355) (end 68.175 47.625) (width 0.254) (layer F.Cu) (net 1))
  (segment (start 65.635 49.53) (end 65.635 47.625) (width 0.254) (layer F.Cu) (net 1))
  (segment (start 68.175 47.625) (end 65.635 47.625) (width 0.254) (layer F.Cu) (net 1) (tstamp 561A687A))
  (segment (start 65.635 47.625) (end 64.365 47.625) (width 0.254) (layer F.Cu) (net 1) (tstamp 561A6875))
  (segment (start 68.175 43.815) (end 68.175 46.355) (width 0.254) (layer F.Cu) (net 1))
  (segment (start 68.175 41.91) (end 68.175 43.815) (width 0.254) (layer F.Cu) (net 1))
  (segment (start 64.365 47.625) (end 62.46 49.53) (width 0.254) (layer F.Cu) (net 1) (tstamp 561A6870))
  (segment (start 71.35 41.275) (end 68.81 41.275) (width 0.254) (layer F.Cu) (net 1))
  (segment (start 68.81 41.275) (end 68.175 41.91) (width 0.254) (layer F.Cu) (net 1) (tstamp 561A6782))
  (segment (start 100.56 51.435) (end 99.925 52.07) (width 0.254) (layer F.Cu) (net 2))
  (segment (start 94.21 51.435) (end 94.21 50.165) (width 0.254) (layer F.Cu) (net 2) (tstamp 561A6B00))
  (segment (start 94.845 52.07) (end 94.21 51.435) (width 0.254) (layer F.Cu) (net 2) (tstamp 561A6AFF))
  (segment (start 99.925 52.07) (end 94.845 52.07) (width 0.254) (layer F.Cu) (net 2) (tstamp 561A6AFE))
  (segment (start 101.195 41.275) (end 100.56 40.64) (width 0.254) (layer F.Cu) (net 2))
  (segment (start 87.86 40.64) (end 100.56 40.64) (width 0.254) (layer F.Cu) (net 2))
  (segment (start 87.606 40.894) (end 84.812 40.894) (width 0.254) (layer F.Cu) (net 2))
  (segment (start 87.606 40.894) (end 87.86 40.64) (width 0.254) (layer F.Cu) (net 2) (tstamp 561A68F6))
  (segment (start 101.195 43.18) (end 101.195 41.275) (width 0.254) (layer F.Cu) (net 2) (tstamp 561A68F9))
  (segment (start 101.195 43.18) (end 100.56 43.18) (width 0.254) (layer F.Cu) (net 2))
  (segment (start 94.21 49.53) (end 94.21 50.165) (width 0.254) (layer F.Cu) (net 2) (tstamp 561A68A3))
  (segment (start 100.56 43.18) (end 94.21 49.53) (width 0.254) (layer F.Cu) (net 2) (tstamp 561A68A0))
  (segment (start 101.195 43.18) (end 103.735 43.18) (width 0.254) (layer F.Cu) (net 2))
  (segment (start 103.735 43.18) (end 104.37 43.815) (width 0.254) (layer F.Cu) (net 2) (tstamp 561A6856))
  (segment (start 73.89 41.275) (end 73.89 39.37) (width 0.254) (layer F.Cu) (net 3))
  (segment (start 72.62 39.37) (end 60.555 39.37) (width 0.254) (layer F.Cu) (net 3))
  (segment (start 81.51 39.37) (end 73.89 39.37) (width 0.254) (layer F.Cu) (net 3) (tstamp 561A6794))
  (segment (start 73.89 39.37) (end 72.62 39.37) (width 0.254) (layer F.Cu) (net 3) (tstamp 561A6A2B))
  (segment (start 59.92 40.005) (end 59.92 41.91) (width 0.254) (layer F.Cu) (net 3) (tstamp 561A6A26))
  (segment (start 60.555 39.37) (end 59.92 40.005) (width 0.254) (layer F.Cu) (net 3) (tstamp 561A6A25))
  (segment (start 84.812 45.466) (end 83.161 45.466) (width 0.254) (layer F.Cu) (net 3))
  (segment (start 81.51 43.815) (end 81.51 39.37) (width 0.254) (layer F.Cu) (net 3) (tstamp 561A6A1A))
  (segment (start 83.161 45.466) (end 81.51 43.815) (width 0.254) (layer F.Cu) (net 3) (tstamp 561A6A18))
  (segment (start 101.195 48.26) (end 103.735 48.26) (width 0.254) (layer F.Cu) (net 3))
  (segment (start 103.735 48.26) (end 104.37 47.625) (width 0.254) (layer F.Cu) (net 3) (tstamp 561A6A0A))
  (segment (start 103.1 51.435) (end 104.37 50.165) (width 0.254) (layer F.Cu) (net 3))
  (segment (start 104.37 50.165) (end 104.37 47.625) (width 0.254) (layer F.Cu) (net 3) (tstamp 561A6A01))
  (segment (start 105.64 39.37) (end 104.37 39.37) (width 0.254) (layer F.Cu) (net 3))
  (segment (start 105.64 39.37) (end 106.275 40.005) (width 0.254) (layer F.Cu) (net 3) (tstamp 561A6882))
  (segment (start 106.275 40.005) (end 106.275 45.72) (width 0.254) (layer F.Cu) (net 3) (tstamp 561A6660))
  (segment (start 81.51 39.37) (end 104.37 39.37) (width 0.254) (layer F.Cu) (net 3))
  (segment (start 106.275 46.99) (end 105.64 47.625) (width 0.254) (layer F.Cu) (net 3) (tstamp 561A6886))
  (segment (start 105.64 47.625) (end 104.37 47.625) (width 0.254) (layer F.Cu) (net 3) (tstamp 561A6887))
  (segment (start 106.275 45.72) (end 106.275 46.99) (width 0.254) (layer F.Cu) (net 3))
  (segment (start 94.21 42.545) (end 92.94 42.545) (width 0.254) (layer F.Cu) (net 4))
  (segment (start 91.778949 51.326051) (end 88.495 51.326051) (width 0.254) (layer F.Cu) (net 4) (tstamp 561A6AAE))
  (segment (start 92.305 50.8) (end 91.778949 51.326051) (width 0.254) (layer F.Cu) (net 4) (tstamp 561A6AAD))
  (segment (start 92.305 43.18) (end 92.305 50.8) (width 0.254) (layer F.Cu) (net 4) (tstamp 561A6AAC))
  (segment (start 92.94 42.545) (end 92.305 43.18) (width 0.254) (layer F.Cu) (net 4) (tstamp 561A6AAB))
  (segment (start 96.75 42.545) (end 94.21 42.545) (width 0.254) (layer F.Cu) (net 4))
  (segment (start 68.175 49.53) (end 66.27 51.435) (width 0.254) (layer F.Cu) (net 5))
  (segment (start 86.59 48.895) (end 68.81 48.895) (width 0.254) (layer F.Cu) (net 5))
  (segment (start 68.81 48.895) (end 68.175 49.53) (width 0.254) (layer F.Cu) (net 5) (tstamp 561A6AB3))
  (segment (start 88.495 47.733949) (end 87.751051 47.733949) (width 0.254) (layer F.Cu) (net 5))
  (segment (start 87.751051 47.733949) (end 86.59 48.895) (width 0.254) (layer F.Cu) (net 5) (tstamp 561A69EC))
  (segment (start 59.92 46.99) (end 59.285 46.99) (width 0.254) (layer F.Cu) (net 5))
  (segment (start 58.65 51.435) (end 66.27 51.435) (width 0.254) (layer F.Cu) (net 5) (tstamp 561A67AF))
  (segment (start 58.015 50.8) (end 58.65 51.435) (width 0.254) (layer F.Cu) (net 5) (tstamp 561A67AE))
  (segment (start 58.015 48.26) (end 58.015 50.8) (width 0.254) (layer F.Cu) (net 5) (tstamp 561A67AC))
  (segment (start 59.285 46.99) (end 58.015 48.26) (width 0.254) (layer F.Cu) (net 5) (tstamp 561A67AB))
  (segment (start 65.635 41.91) (end 65.635 43.18) (width 0.254) (layer F.Cu) (net 7))
  (segment (start 64.365 44.45) (end 62.46 44.45) (width 0.254) (layer F.Cu) (net 7) (tstamp 561A6772))
  (segment (start 65.635 43.18) (end 64.365 44.45) (width 0.254) (layer F.Cu) (net 7) (tstamp 561A6770))
  (segment (start 96.75 50.165) (end 96.75 49.53) (width 0.254) (layer F.Cu) (net 9))
  (segment (start 96.75 49.53) (end 96.75 50.165) (width 0.254) (layer F.Cu) (net 9) (tstamp 561A6AAA))
  (segment (start 101.195 45.72) (end 99.925 45.72) (width 0.254) (layer F.Cu) (net 9))
  (segment (start 96.75 48.895) (end 96.75 50.165) (width 0.254) (layer F.Cu) (net 9) (tstamp 561A689B))
  (segment (start 99.925 45.72) (end 96.75 48.895) (width 0.254) (layer F.Cu) (net 9) (tstamp 561A6899))

)
