PCBNEW-LibModule-V1  Sun 11 Oct 2015 07:45:35 PM CEST
# encoding utf-8
Units mm
$INDEX
1000UFCAP
5X5BOARD
ESP-01
ESP-07
$EndINDEX
$MODULE 1000UFCAP
Po 0 0 0 15 561AA03B 00000000 ~~
Li 1000UFCAP
Sc 0
AR /55B1F4FF
Op 0 0 0
T0 10.795 0 1.016 1.016 0 0.2032 N V 21 N "C2"
T1 0.127 11.684 1.016 1.016 0 0.2032 N V 21 N "1000uF"
DS 5 2 5 21 0.15 21
DS 5 21 -5 21 0.15 21
DS -5 21 -5 2 0.15 21
DS -5 2 5 2 0.15 21
T2 1.905 3.683 1.524 1.524 0 0.3048 N V 21 N "+"
DS -1.905 0 -1.905 2.54 0.381 21
DS 1.905 0 1.905 2.54 0.381 21
$PAD
Sh "1" R 1.651 1.651 0 0 0
Dr 0.8128 0 0
At STD N 00E0FFFF
Ne 1 "5V"
Po 1.905 0
$EndPAD
$PAD
Sh "2" C 1.651 1.651 0 0 0
Dr 0.8128 0 0
At STD N 00E0FFFF
Ne 2 "GND"
Po -1.905 0
$EndPAD
$SHAPE3D
Na "discret/c_horiz_c1v7.wrl"
Sc 1.5 1.5 1.5
Of 0 0 0
Ro 0 0 0
$EndSHAPE3D
$EndMODULE 1000UFCAP
$MODULE 5X5BOARD
Po 0 0 0 15 561A9CD1 00000000 ~~
Li 5X5BOARD
Sc 0
AR 
Op 0 0 0
T0 0 -30 1 1 0 0.15 N V 21 N "5X5BOARD"
T1 10 -30 1 1 0 0.15 N V 21 N "VAL**"
DS 25 0 25 -25 0.15 21
DS 25 -25 -25 -25 0.15 21
DS -25 -25 -25 25 0.15 21
DS -25 25 25 25 0.15 21
DS 25 25 25 0 0.15 21
$EndMODULE 5X5BOARD
$MODULE ESP-01
Po 0 0 0 15 561A5DB2 00000000 ~~
Li ESP-01
Sc 0
AR 
Op 0 0 0
T0 -13 -2 1 1 0 0.15 N V 21 N "ESP-01"
T1 -12.5 2 1 1 0 0.15 N V 21 N "VAL**"
DS 3 -5 3 -7.5 0.15 21
DS 3 -7.5 -23 -7.5 0.15 21
DS -23 -7.5 -23 -5 0.15 21
DS -22.5 7.5 3 7.5 0.15 21
DS 3 7.5 3 4 0.15 21
DS -22.5 7.5 -23 7.5 0.15 21
DS -23 7.5 -23 5 0.15 21
DS -23 -5 -23 5 0.15 21
DS 3 -5 3 4 0.15 21
$PAD
Sh "8" C 1.397 1.397 0 0 0
Dr 0.8128 0 0
At STD N 00E0FFFF
Ne 0 ""
Po 1.27 -3.81
$EndPAD
$PAD
Sh "1" C 1.397 1.397 0 0 0
Dr 0.8128 0 0
At STD N 00E0FFFF
Ne 0 ""
Po 1.27 -1.27
$EndPAD
$PAD
Sh "3" C 1.397 1.397 0 0 0
Dr 0.8128 0 0
At STD N 00E0FFFF
Ne 0 ""
Po 1.27 1.27
$EndPAD
$PAD
Sh "16" C 1.397 1.397 0 0 0
Dr 0.8128 0 0
At STD N 00E0FFFF
Ne 0 ""
Po 1.27 3.81
$EndPAD
$PAD
Sh "15" C 1.4097 1.4097 0 0 0
Dr 0.8128 0 0
At STD N 00E0FFFF
Ne 0 ""
Po -1.27 -3.81
$EndPAD
$PAD
Sh "12" C 1.4097 1.4097 0 0 0
Dr 0.8128 0 0
At STD N 00E0FFFF
Ne 0 ""
Po -1.27 -1.27
$EndPAD
$PAD
Sh "11" C 1.397 1.397 0 0 0
Dr 0.8128 0 0
At STD N 00E0FFFF
Ne 0 ""
Po -1.27 1.27
$EndPAD
$PAD
Sh "9" C 1.397 1.397 0 0 0
Dr 0.8128 0 0
At STD N 00E0FFFF
Ne 0 ""
Po -1.27 3.81
$EndPAD
$EndMODULE ESP-01
$MODULE ESP-07
Po 0 0 0 15 56128FC7 00000000 ~~
Li ESP-07
Sc 0
AR 
Op 0 0 0
T0 0 -14 1 1 0 0.15 N V 21 N "ESP-07"
T1 0 -12 1 1 0 0.15 N V 21 N "VAL**"
DA 8 -7 8 -6.5 900 0.15 21
DA 8 -7 7.5 -7 900 0.15 21
DA 8 -5 8 -4.5 900 0.15 21
DA 8 -5 7.5 -5 900 0.15 21
DA 8 -3 8 -2.5 900 0.15 21
DA 8 -3 7.5 -3 900 0.15 21
DA 8 -1 8 -0.5 900 0.15 21
DA 8 -1 7.5 -1 900 0.15 21
DA 8 1 8 1.5 900 0.15 21
DA 8 1 7.5 1 900 0.15 21
DA 8 3 8 3.5 900 0.15 21
DA 8 3 7.5 3 900 0.15 21
DA 8 5 8 5.5 900 0.15 21
DA 8 5 7.5 5 900 0.15 21
DA 8 7 8 7.5 900 0.15 21
DA 8 7 7.5 7 900 0.15 21
DA -8 7 -8 6.5 900 0.15 21
DA -8 7 -7.5 7 900 0.15 21
DA -8 5 -8 4.5 900 0.15 21
DA -8 5 -7.5 5 900 0.15 21
DA -8 3 -8 2.5 900 0.15 21
DA -8 3 -7.5 3 900 0.15 21
DA -8 1 -8 0.5 900 0.15 21
DA -8 1 -7.5 1 900 0.15 21
DA -8 -1 -8 -1.5 900 0.15 21
DA -8 -1 -7.5 -1 900 0.15 21
DA -8 -3 -8 -3.5 900 0.15 21
DA -8 -3 -7.5 -3 900 0.15 21
DA -8 -5 -8 -5.5 900 0.15 21
DA -8 -5 -7.5 -5 900 0.15 21
DA -8 -7 -8 -7.5 900 0.15 21
DA -8 -7 -7.5 -7 900 0.15 21
DS 8 0 8 9 0.15 21
DS 8 9 -8 9 0.15 21
DS -8 9 -8 -13 0.15 21
DS -8 -13 8 -13 0.15 21
DS 8 -13 8 0 0.15 21
$PAD
Sh "1" R 4 1 0 0 0
Dr 0 0 0
At SMD N 00888000
Ne 0 ""
Po -9 -7
$EndPAD
$PAD
Sh "2" R 4 1 0 0 0
Dr 0 0 0
At SMD N 00888000
Ne 0 ""
Po -9 -5
$EndPAD
$PAD
Sh "3" R 4 1 0 0 0
Dr 0 0 0
At SMD N 00888000
Ne 0 ""
Po -9 -3
$EndPAD
$PAD
Sh "4" R 4 1 0 0 0
Dr 0 0 0
At SMD N 00888000
Ne 0 ""
Po -9 -1
$EndPAD
$PAD
Sh "5" R 4 1 0 0 0
Dr 0 0 0
At SMD N 00888000
Ne 0 ""
Po -9 1
$EndPAD
$PAD
Sh "6" R 4 1 0 0 0
Dr 0 0 0
At SMD N 00888000
Ne 0 ""
Po -9 3
$EndPAD
$PAD
Sh "7" R 4 1 0 0 0
Dr 0 0 0
At SMD N 00888000
Ne 0 ""
Po -9 5
$EndPAD
$PAD
Sh "8" R 4 1 0 0 0
Dr 0 0 0
At SMD N 00888000
Ne 0 ""
Po -9 7
$EndPAD
$PAD
Sh "9" R 4 1 0 0 0
Dr 0 0 0
At SMD N 00888000
Ne 0 ""
Po 9 7
$EndPAD
$PAD
Sh "10" R 4 1 0 0 0
Dr 0 0 0
At SMD N 00888000
Ne 0 ""
Po 9 5
$EndPAD
$PAD
Sh "11" R 4 1 0 0 0
Dr 0 0 0
At SMD N 00888000
Ne 0 ""
Po 9 3
$EndPAD
$PAD
Sh "12" R 4 1 0 0 0
Dr 0 0 0
At SMD N 00888000
Ne 0 ""
Po 9 1
$EndPAD
$PAD
Sh "13" R 4 1 0 0 0
Dr 0 0 0
At SMD N 00888000
Ne 0 ""
Po 9 -1
$EndPAD
$PAD
Sh "14" R 4 1 0 0 0
Dr 0 0 0
At SMD N 00888000
Ne 0 ""
Po 9 -3
$EndPAD
$PAD
Sh "15" R 4 1 0 0 0
Dr 0 0 0
At SMD N 00888000
Ne 0 ""
Po 9 -5
$EndPAD
$PAD
Sh "16" R 4 1 0 0 0
Dr 0 0 0
At SMD N 00888000
Ne 0 ""
Po 9 -7
$EndPAD
$EndMODULE ESP-07
$EndLIBRARY
