(export (version D)
  (design
    (source /home/sjoerd/synced/ledclock-v2/kicad/circuit-v2/converterboard.sch)
    (date "Tue 13 Oct 2015 09:03:10 PM CEST")
    (tool "eeschema (2013-may-18)-stable"))
  (components
    (comp (ref U1)
      (value AMS1117)
      (libsource (lib AMS1117) (part AMS1117))
      (sheetpath (names /) (tstamps /))
      (tstamp 55B154D1))
    (comp (ref Q1)
      (value 2N7000)
      (libsource (lib device) (part MOSFET_N))
      (sheetpath (names /) (tstamps /))
      (tstamp 55B15672))
    (comp (ref R3)
      (value 10k)
      (libsource (lib device) (part R))
      (sheetpath (names /) (tstamps /))
      (tstamp 55B156CB))
    (comp (ref P1)
      (value POWER)
      (libsource (lib conn) (part CONN_2))
      (sheetpath (names /) (tstamps /))
      (tstamp 55B15825))
    (comp (ref K2)
      (value WS2812)
      (libsource (lib conn) (part CONN_3))
      (sheetpath (names /) (tstamps /))
      (tstamp 55B158BC))
    (comp (ref C1)
      (value "22 uF")
      (libsource (lib device) (part CP1))
      (sheetpath (names /) (tstamps /))
      (tstamp 55B1F3E4))
    (comp (ref C2)
      (value 1000uF)
      (libsource (lib device) (part CP1))
      (sheetpath (names /) (tstamps /))
      (tstamp 55B1F4FF))
    (comp (ref R1)
      (value 10k)
      (libsource (lib device) (part R))
      (sheetpath (names /) (tstamps /))
      (tstamp 55B2499D))
    (comp (ref U2)
      (value ESP8266)
      (libsource (lib esp8266) (part ESP8266))
      (sheetpath (names /) (tstamps /))
      (tstamp 56128CB9))
    (comp (ref R4)
      (value 10k)
      (libsource (lib device) (part R))
      (sheetpath (names /) (tstamps /))
      (tstamp 55B15730))
    (comp (ref R5)
      (value 470)
      (libsource (lib device) (part R))
      (sheetpath (names /) (tstamps /))
      (tstamp 5612985E))
    (comp (ref K1)
      (value DEBUG)
      (libsource (lib conn) (part CONN_7))
      (sheetpath (names /) (tstamps /))
      (tstamp 56129D83)))
  (libparts
    (libpart (lib device) (part CP1)
      (description "Condensateur polarise")
      (footprints
        (fp CP*)
        (fp SM*))
      (fields
        (field (name Reference) C)
        (field (name Value) CP1)
        (field (name Footprint) ~)
        (field (name Datasheet) ~))
      (pins
        (pin (num 1) (name ~) (type passive))
        (pin (num 2) (name ~) (type passive))))
    (libpart (lib device) (part MOS_N)
      (docs transistors/mos/*.*)
      (fields
        (field (name Reference) Q)
        (field (name Value) MOS_N)
        (field (name Footprint) ~)
        (field (name Datasheet) ~))
      (pins
        (pin (num D) (name D) (type passive))
        (pin (num G) (name G) (type input))
        (pin (num S) (name S) (type passive))))
    (libpart (lib device) (part R)
      (description Resistance)
      (footprints
        (fp R?)
        (fp SM0603)
        (fp SM0805)
        (fp R?-*)
        (fp SM1206))
      (fields
        (field (name Reference) R)
        (field (name Value) R)
        (field (name Footprint) ~)
        (field (name Datasheet) ~))
      (pins
        (pin (num 1) (name ~) (type passive))
        (pin (num 2) (name ~) (type passive))))
    (libpart (lib conn) (part CONN_2)
      (description "Symbole general de connecteur")
      (fields
        (field (name Reference) P)
        (field (name Value) CONN_2)
        (field (name Footprint) ~)
        (field (name Datasheet) ~))
      (pins
        (pin (num 1) (name P1) (type passive))
        (pin (num 2) (name PM) (type passive))))
    (libpart (lib conn) (part CONN_3)
      (description "Symbole general de connecteur")
      (fields
        (field (name Reference) K)
        (field (name Value) CONN_3)
        (field (name Footprint) ~)
        (field (name Datasheet) ~))
      (pins
        (pin (num 1) (name P1) (type passive))
        (pin (num 2) (name PM) (type passive))
        (pin (num 3) (name P3) (type passive))))
    (libpart (lib conn) (part CONN_7)
      (description "Symbole general pour connexions")
      (fields
        (field (name Reference) P)
        (field (name Value) CONN_7)
        (field (name Footprint) ~)
        (field (name Datasheet) ~))
      (pins
        (pin (num 1) (name P1) (type passive))
        (pin (num 2) (name P2) (type passive))
        (pin (num 3) (name P3) (type passive))
        (pin (num 4) (name P4) (type passive))
        (pin (num 5) (name P5) (type passive))
        (pin (num 6) (name P6) (type passive))
        (pin (num 7) (name P7) (type passive))))
    (libpart (lib esp8266) (part ESP8266)
      (fields
        (field (name Reference) U)
        (field (name Value) ESP8266)
        (field (name Footprint) ~)
        (field (name Datasheet) ~))
      (pins
        (pin (num 1) (name RST) (type input))
        (pin (num 2) (name ADC) (type input))
        (pin (num 3) (name CH_PD) (type input))
        (pin (num 4) (name GPIO16) (type input))
        (pin (num 5) (name GPIO14) (type input))
        (pin (num 6) (name GPIO12) (type input))
        (pin (num 7) (name GPIO13) (type input))
        (pin (num 8) (name VCC) (type input))
        (pin (num 9) (name GND) (type input))
        (pin (num 10) (name GPIO15) (type input))
        (pin (num 11) (name GPIO2) (type input))
        (pin (num 12) (name GPIO0) (type input))
        (pin (num 13) (name GPIO4) (type input))
        (pin (num 14) (name GPIO5) (type input))
        (pin (num 15) (name RXD) (type input))
        (pin (num 16) (name TXD) (type input))))
    (libpart (lib AMS1117) (part AMS1117)
      (fields
        (field (name Reference) U)
        (field (name Value) AMS1117))
      (pins
        (pin (num 1) (name GND/ADJ) (type input))
        (pin (num 2) (name Vout) (type input))
        (pin (num 3) (name Vin) (type input)))))
  (libraries
    (library (logical device)
      (uri /usr/share/kicad/library/device.lib))
    (library (logical conn)
      (uri /usr/share/kicad/library/conn.lib))
    (library (logical esp8266)
      (uri esp8266.lib))
    (library (logical AMS1117)
      (uri AMS1117.lib)))
  (nets
    (net (code 1) (name 5V)
      (node (ref P1) (pin 2))
      (node (ref R4) (pin 1))
      (node (ref C2) (pin 1))
      (node (ref U1) (pin 3))
      (node (ref K2) (pin 3)))
    (net (code 2) (name "")
      (node (ref R5) (pin 2))
      (node (ref K2) (pin 2)))
    (net (code 3) (name 3V3)
      (node (ref R1) (pin 2))
      (node (ref R3) (pin 1))
      (node (ref U2) (pin 8))
      (node (ref Q1) (pin G))
      (node (ref C1) (pin 1))
      (node (ref U1) (pin 2))
      (node (ref K1) (pin 7)))
    (net (code 4) (name GND)
      (node (ref K2) (pin 1))
      (node (ref C2) (pin 2))
      (node (ref U2) (pin 9))
      (node (ref C1) (pin 2))
      (node (ref U1) (pin 1))
      (node (ref K1) (pin 4))
      (node (ref K1) (pin 3))
      (node (ref P1) (pin 1)))
    (net (code 5) (name "")
      (node (ref K1) (pin 5))
      (node (ref U2) (pin 1)))
    (net (code 6) (name LOGIC_LOW)
      (node (ref K1) (pin 6))
      (node (ref Q1) (pin S))
      (node (ref R3) (pin 2))
      (node (ref U2) (pin 12)))
    (net (code 7) (name "")
      (node (ref U2) (pin 15))
      (node (ref K1) (pin 1)))
    (net (code 8) (name "")
      (node (ref U2) (pin 16))
      (node (ref K1) (pin 2)))
    (net (code 9) (name "")
      (node (ref U2) (pin 3))
      (node (ref R1) (pin 1)))
    (net (code 10) (name "LOGIC HIGH")
      (node (ref R4) (pin 2))
      (node (ref R5) (pin 1))
      (node (ref Q1) (pin D)))
    (net (code 11) (name "")
      (node (ref U2) (pin 4)))
    (net (code 12) (name "")
      (node (ref U2) (pin 2)))
    (net (code 13) (name "")
      (node (ref U2) (pin 5)))
    (net (code 14) (name "")
      (node (ref U2) (pin 6)))
    (net (code 15) (name "")
      (node (ref U2) (pin 7)))
    (net (code 16) (name "")
      (node (ref U2) (pin 10)))
    (net (code 17) (name "")
      (node (ref U2) (pin 11)))
    (net (code 18) (name "")
      (node (ref U2) (pin 14)))
    (net (code 19) (name "")
      (node (ref U2) (pin 13)))))