PCBNEW-LibModule-V1  Fri 24 Jul 2015 12:28:28 PM CEST
# encoding utf-8
Units mm
$INDEX
C22H
$EndINDEX
$MODULE C22H
Po 0 0 0 15 55B21257 00000000 ~~
Li C22H
Sc 0
AR 
Op 0 0 0
T0 6.35 -1.27 1 1 0 0.15 N V 21 N "C22H"
T1 6.35 1.27 1 1 0 0.15 N V 21 N "VAL**"
DS 2.54 -1.27 2.54 -2.54 0.15 21
DS 2.54 -2.54 11.43 -2.54 0.15 21
DS 11.43 -2.54 11.43 2.54 0.15 21
DS 11.43 2.54 2.54 2.54 0.15 21
DS 2.54 2.54 2.54 1.27 0.15 21
DS 0 -1.27 2.54 -1.27 0.15 21
DS 2.54 -1.27 2.54 1.27 0.15 21
DS 2.54 1.27 0 1.27 0.15 21
$PAD
Sh "1" R 1.5 1.5 0 0 0
Dr 0.6 0 0
At STD N 00E0FFFF
Ne 0 ""
Po 0 1.27
$EndPAD
$PAD
Sh "2" C 1.5 1.5 0 0 0
Dr 0.6 0 0
At STD N 00E0FFFF
Ne 0 ""
Po 0 -1.27
$EndPAD
$EndMODULE C22H
$EndLIBRARY
