G04 (created by PCBNEW (2013-may-18)-stable) date Fri 23 Oct 2015 08:18:41 PM CEST*
%MOIN*%
G04 Gerber Fmt 3.4, Leading zero omitted, Abs format*
%FSLAX34Y34*%
G01*
G70*
G90*
G04 APERTURE LIST*
%ADD10C,0.00590551*%
%ADD11R,0.055X0.055*%
%ADD12C,0.055*%
%ADD13R,0.065X0.065*%
%ADD14C,0.065*%
%ADD15C,0.0555*%
%ADD16C,0.035*%
%ADD17C,0.01*%
G04 APERTURE END LIST*
G54D10*
G54D11*
X39750Y-19000D03*
G54D12*
X39750Y-18000D03*
X39750Y-17000D03*
G54D11*
X40250Y-20250D03*
G54D12*
X39250Y-20250D03*
G54D13*
X41250Y-17500D03*
G54D14*
X41250Y-19000D03*
G54D11*
X28250Y-20000D03*
G54D12*
X29250Y-20000D03*
G54D10*
G36*
X34840Y-19818D02*
X35229Y-20207D01*
X34840Y-20596D01*
X34451Y-20207D01*
X34840Y-19818D01*
X34840Y-19818D01*
G37*
G54D12*
X35547Y-19500D03*
X34840Y-18792D03*
X24500Y-19750D03*
X24500Y-18750D03*
X24500Y-17750D03*
X24500Y-16750D03*
G54D15*
X23500Y-19750D03*
X23500Y-18750D03*
G54D12*
X23500Y-17750D03*
X23500Y-16750D03*
X27000Y-17000D03*
X27000Y-20000D03*
X37000Y-19750D03*
X37000Y-16750D03*
X26000Y-17000D03*
X26000Y-20000D03*
X38000Y-16750D03*
X38000Y-19750D03*
G54D11*
X29500Y-17000D03*
G54D12*
X30500Y-17000D03*
X31500Y-17000D03*
X32500Y-17000D03*
X33500Y-17000D03*
X34500Y-17000D03*
X35500Y-17000D03*
G54D16*
X36250Y-16250D03*
G54D17*
X28500Y-19000D02*
X28250Y-19250D01*
X28250Y-20000D02*
X28250Y-19250D01*
X34000Y-19000D02*
X34500Y-19500D01*
X28500Y-19000D02*
X34000Y-19000D01*
X34500Y-19500D02*
X35547Y-19500D01*
X35500Y-17000D02*
X35500Y-19452D01*
X35500Y-19452D02*
X35547Y-19500D01*
X39750Y-19000D02*
X39500Y-19000D01*
X39500Y-19000D02*
X39000Y-18500D01*
X39000Y-18500D02*
X39000Y-16500D01*
X39000Y-16500D02*
X38750Y-16250D01*
X38750Y-16250D02*
X36250Y-16250D01*
X37000Y-16750D02*
X36750Y-16750D01*
X36042Y-20207D02*
X34840Y-20207D01*
X36250Y-20000D02*
X36042Y-20207D01*
X36250Y-17250D02*
X36250Y-20000D01*
X36750Y-16750D02*
X36250Y-17250D01*
X27000Y-20000D02*
X27000Y-19250D01*
X27750Y-18750D02*
X34250Y-18750D01*
X34250Y-18750D02*
X34500Y-18750D01*
X27500Y-18750D02*
X27750Y-18750D01*
X27000Y-19250D02*
X27500Y-18750D01*
X34500Y-18750D02*
X34542Y-18792D01*
X34542Y-18792D02*
X34840Y-18792D01*
X34500Y-18750D02*
X34797Y-18750D01*
X34797Y-18750D02*
X34840Y-18792D01*
X34500Y-17000D02*
X34500Y-18750D01*
X33500Y-17000D02*
X33500Y-17750D01*
X24750Y-18500D02*
X24500Y-18750D01*
X32750Y-18500D02*
X24750Y-18500D01*
X33500Y-17750D02*
X32750Y-18500D01*
X23500Y-19750D02*
X23250Y-19750D01*
X29500Y-16500D02*
X29500Y-17000D01*
X29250Y-16250D02*
X29500Y-16500D01*
X23250Y-16250D02*
X29250Y-16250D01*
X23000Y-16500D02*
X23250Y-16250D01*
X23000Y-19500D02*
X23000Y-16500D01*
X23250Y-19750D02*
X23000Y-19500D01*
X30500Y-17000D02*
X30500Y-17500D01*
X24750Y-16750D02*
X24500Y-16750D01*
X25750Y-17750D02*
X24750Y-16750D01*
X30250Y-17750D02*
X25750Y-17750D01*
X30500Y-17500D02*
X30250Y-17750D01*
G54D10*
G36*
X24335Y-17250D02*
X24203Y-17304D01*
X24055Y-17452D01*
X23999Y-17585D01*
X23945Y-17453D01*
X23797Y-17305D01*
X23671Y-17252D01*
X23772Y-17210D01*
X23797Y-17117D01*
X23500Y-16820D01*
X23494Y-16826D01*
X23423Y-16755D01*
X23429Y-16750D01*
X23423Y-16744D01*
X23494Y-16673D01*
X23500Y-16679D01*
X23505Y-16673D01*
X23576Y-16744D01*
X23570Y-16750D01*
X23867Y-17047D01*
X23960Y-17022D01*
X23999Y-16912D01*
X24054Y-17047D01*
X24202Y-17194D01*
X24335Y-17250D01*
X24335Y-17250D01*
G37*
G54D17*
X24335Y-17250D02*
X24203Y-17304D01*
X24055Y-17452D01*
X23999Y-17585D01*
X23945Y-17453D01*
X23797Y-17305D01*
X23671Y-17252D01*
X23772Y-17210D01*
X23797Y-17117D01*
X23500Y-16820D01*
X23494Y-16826D01*
X23423Y-16755D01*
X23429Y-16750D01*
X23423Y-16744D01*
X23494Y-16673D01*
X23500Y-16679D01*
X23505Y-16673D01*
X23576Y-16744D01*
X23570Y-16750D01*
X23867Y-17047D01*
X23960Y-17022D01*
X23999Y-16912D01*
X24054Y-17047D01*
X24202Y-17194D01*
X24335Y-17250D01*
G54D10*
G36*
X34601Y-20710D02*
X29779Y-20710D01*
X29779Y-20075D01*
X29768Y-19867D01*
X29710Y-19727D01*
X29617Y-19702D01*
X29547Y-19773D01*
X29547Y-19632D01*
X29522Y-19539D01*
X29325Y-19470D01*
X29117Y-19481D01*
X28977Y-19539D01*
X28952Y-19632D01*
X29250Y-19929D01*
X29547Y-19632D01*
X29547Y-19773D01*
X29320Y-20000D01*
X29617Y-20297D01*
X29710Y-20272D01*
X29779Y-20075D01*
X29779Y-20710D01*
X29547Y-20710D01*
X29547Y-20367D01*
X29250Y-20070D01*
X28952Y-20367D01*
X28977Y-20460D01*
X29174Y-20529D01*
X29382Y-20518D01*
X29522Y-20460D01*
X29547Y-20367D01*
X29547Y-20710D01*
X23119Y-20710D01*
X22789Y-20380D01*
X22789Y-19713D01*
X23002Y-19926D01*
X23052Y-20048D01*
X23200Y-20196D01*
X23394Y-20277D01*
X23604Y-20277D01*
X23798Y-20197D01*
X23946Y-20049D01*
X24001Y-19918D01*
X24054Y-20047D01*
X24202Y-20194D01*
X24395Y-20274D01*
X24603Y-20275D01*
X24797Y-20195D01*
X24944Y-20047D01*
X25024Y-19854D01*
X25025Y-19646D01*
X24945Y-19453D01*
X24797Y-19305D01*
X24664Y-19249D01*
X24797Y-19195D01*
X24944Y-19047D01*
X25024Y-18854D01*
X25024Y-18800D01*
X27025Y-18800D01*
X26787Y-19037D01*
X26722Y-19135D01*
X26700Y-19250D01*
X26700Y-19557D01*
X26555Y-19702D01*
X26499Y-19835D01*
X26445Y-19703D01*
X26297Y-19555D01*
X26104Y-19475D01*
X25896Y-19474D01*
X25703Y-19554D01*
X25555Y-19702D01*
X25475Y-19895D01*
X25474Y-20103D01*
X25554Y-20297D01*
X25702Y-20444D01*
X25895Y-20524D01*
X26103Y-20525D01*
X26297Y-20445D01*
X26444Y-20297D01*
X26500Y-20164D01*
X26554Y-20297D01*
X26702Y-20444D01*
X26895Y-20524D01*
X27103Y-20525D01*
X27297Y-20445D01*
X27444Y-20297D01*
X27524Y-20104D01*
X27525Y-19896D01*
X27445Y-19703D01*
X27300Y-19557D01*
X27300Y-19374D01*
X27624Y-19050D01*
X27750Y-19050D01*
X28029Y-19050D01*
X27972Y-19135D01*
X27950Y-19250D01*
X27950Y-19474D01*
X27925Y-19474D01*
X27833Y-19512D01*
X27763Y-19583D01*
X27725Y-19675D01*
X27724Y-19774D01*
X27724Y-20324D01*
X27762Y-20416D01*
X27833Y-20486D01*
X27925Y-20524D01*
X28024Y-20525D01*
X28574Y-20525D01*
X28666Y-20487D01*
X28736Y-20416D01*
X28774Y-20324D01*
X28775Y-20237D01*
X28789Y-20272D01*
X28882Y-20297D01*
X29179Y-20000D01*
X28882Y-19702D01*
X28789Y-19727D01*
X28775Y-19768D01*
X28775Y-19675D01*
X28737Y-19583D01*
X28666Y-19513D01*
X28574Y-19475D01*
X28550Y-19475D01*
X28550Y-19374D01*
X28624Y-19300D01*
X33875Y-19300D01*
X34287Y-19712D01*
X34287Y-19712D01*
X34385Y-19777D01*
X34500Y-19800D01*
X34505Y-19800D01*
X34239Y-20065D01*
X34201Y-20157D01*
X34201Y-20256D01*
X34239Y-20348D01*
X34309Y-20418D01*
X34601Y-20710D01*
X34601Y-20710D01*
G37*
G54D17*
X34601Y-20710D02*
X29779Y-20710D01*
X29779Y-20075D01*
X29768Y-19867D01*
X29710Y-19727D01*
X29617Y-19702D01*
X29547Y-19773D01*
X29547Y-19632D01*
X29522Y-19539D01*
X29325Y-19470D01*
X29117Y-19481D01*
X28977Y-19539D01*
X28952Y-19632D01*
X29250Y-19929D01*
X29547Y-19632D01*
X29547Y-19773D01*
X29320Y-20000D01*
X29617Y-20297D01*
X29710Y-20272D01*
X29779Y-20075D01*
X29779Y-20710D01*
X29547Y-20710D01*
X29547Y-20367D01*
X29250Y-20070D01*
X28952Y-20367D01*
X28977Y-20460D01*
X29174Y-20529D01*
X29382Y-20518D01*
X29522Y-20460D01*
X29547Y-20367D01*
X29547Y-20710D01*
X23119Y-20710D01*
X22789Y-20380D01*
X22789Y-19713D01*
X23002Y-19926D01*
X23052Y-20048D01*
X23200Y-20196D01*
X23394Y-20277D01*
X23604Y-20277D01*
X23798Y-20197D01*
X23946Y-20049D01*
X24001Y-19918D01*
X24054Y-20047D01*
X24202Y-20194D01*
X24395Y-20274D01*
X24603Y-20275D01*
X24797Y-20195D01*
X24944Y-20047D01*
X25024Y-19854D01*
X25025Y-19646D01*
X24945Y-19453D01*
X24797Y-19305D01*
X24664Y-19249D01*
X24797Y-19195D01*
X24944Y-19047D01*
X25024Y-18854D01*
X25024Y-18800D01*
X27025Y-18800D01*
X26787Y-19037D01*
X26722Y-19135D01*
X26700Y-19250D01*
X26700Y-19557D01*
X26555Y-19702D01*
X26499Y-19835D01*
X26445Y-19703D01*
X26297Y-19555D01*
X26104Y-19475D01*
X25896Y-19474D01*
X25703Y-19554D01*
X25555Y-19702D01*
X25475Y-19895D01*
X25474Y-20103D01*
X25554Y-20297D01*
X25702Y-20444D01*
X25895Y-20524D01*
X26103Y-20525D01*
X26297Y-20445D01*
X26444Y-20297D01*
X26500Y-20164D01*
X26554Y-20297D01*
X26702Y-20444D01*
X26895Y-20524D01*
X27103Y-20525D01*
X27297Y-20445D01*
X27444Y-20297D01*
X27524Y-20104D01*
X27525Y-19896D01*
X27445Y-19703D01*
X27300Y-19557D01*
X27300Y-19374D01*
X27624Y-19050D01*
X27750Y-19050D01*
X28029Y-19050D01*
X27972Y-19135D01*
X27950Y-19250D01*
X27950Y-19474D01*
X27925Y-19474D01*
X27833Y-19512D01*
X27763Y-19583D01*
X27725Y-19675D01*
X27724Y-19774D01*
X27724Y-20324D01*
X27762Y-20416D01*
X27833Y-20486D01*
X27925Y-20524D01*
X28024Y-20525D01*
X28574Y-20525D01*
X28666Y-20487D01*
X28736Y-20416D01*
X28774Y-20324D01*
X28775Y-20237D01*
X28789Y-20272D01*
X28882Y-20297D01*
X29179Y-20000D01*
X28882Y-19702D01*
X28789Y-19727D01*
X28775Y-19768D01*
X28775Y-19675D01*
X28737Y-19583D01*
X28666Y-19513D01*
X28574Y-19475D01*
X28550Y-19475D01*
X28550Y-19374D01*
X28624Y-19300D01*
X33875Y-19300D01*
X34287Y-19712D01*
X34287Y-19712D01*
X34385Y-19777D01*
X34500Y-19800D01*
X34505Y-19800D01*
X34239Y-20065D01*
X34201Y-20157D01*
X34201Y-20256D01*
X34239Y-20348D01*
X34309Y-20418D01*
X34601Y-20710D01*
G54D10*
G36*
X41710Y-20380D02*
X41583Y-20507D01*
X41583Y-19404D01*
X41250Y-19070D01*
X41179Y-19141D01*
X41179Y-19000D01*
X40845Y-18666D01*
X40748Y-18697D01*
X40670Y-18912D01*
X40680Y-19140D01*
X40748Y-19302D01*
X40845Y-19333D01*
X41179Y-19000D01*
X41179Y-19141D01*
X40916Y-19404D01*
X40947Y-19501D01*
X41162Y-19579D01*
X41390Y-19569D01*
X41552Y-19501D01*
X41583Y-19404D01*
X41583Y-20507D01*
X41380Y-20710D01*
X40692Y-20710D01*
X40736Y-20666D01*
X40774Y-20574D01*
X40775Y-20475D01*
X40775Y-20024D01*
X40774Y-19925D01*
X40736Y-19833D01*
X40666Y-19762D01*
X40574Y-19724D01*
X40362Y-19725D01*
X40300Y-19787D01*
X40300Y-20200D01*
X40712Y-20200D01*
X40775Y-20137D01*
X40775Y-20024D01*
X40775Y-20475D01*
X40775Y-20362D01*
X40712Y-20300D01*
X40300Y-20300D01*
X40300Y-20307D01*
X40275Y-20307D01*
X40275Y-17896D01*
X40195Y-17703D01*
X40047Y-17555D01*
X39914Y-17499D01*
X40047Y-17445D01*
X40194Y-17297D01*
X40274Y-17104D01*
X40275Y-16896D01*
X40195Y-16703D01*
X40047Y-16555D01*
X39854Y-16475D01*
X39646Y-16474D01*
X39453Y-16554D01*
X39305Y-16702D01*
X39225Y-16895D01*
X39224Y-17103D01*
X39304Y-17297D01*
X39452Y-17444D01*
X39585Y-17500D01*
X39453Y-17554D01*
X39305Y-17702D01*
X39225Y-17895D01*
X39224Y-18103D01*
X39304Y-18297D01*
X39452Y-18444D01*
X39524Y-18474D01*
X39524Y-18474D01*
X39425Y-18475D01*
X39333Y-18513D01*
X39262Y-18583D01*
X39224Y-18675D01*
X39225Y-18887D01*
X39287Y-18950D01*
X39700Y-18950D01*
X39700Y-18942D01*
X39800Y-18942D01*
X39800Y-18950D01*
X40212Y-18950D01*
X40275Y-18887D01*
X40275Y-18675D01*
X40237Y-18583D01*
X40166Y-18513D01*
X40074Y-18475D01*
X39975Y-18474D01*
X39975Y-18474D01*
X40047Y-18445D01*
X40194Y-18297D01*
X40274Y-18104D01*
X40275Y-17896D01*
X40275Y-20307D01*
X40275Y-20307D01*
X40275Y-19324D01*
X40275Y-19112D01*
X40212Y-19050D01*
X39800Y-19050D01*
X39800Y-19462D01*
X39862Y-19525D01*
X39975Y-19525D01*
X40074Y-19524D01*
X40166Y-19486D01*
X40237Y-19416D01*
X40275Y-19324D01*
X40275Y-20307D01*
X40200Y-20307D01*
X40200Y-20300D01*
X40192Y-20300D01*
X40192Y-20200D01*
X40200Y-20200D01*
X40200Y-19787D01*
X40137Y-19725D01*
X39925Y-19724D01*
X39833Y-19762D01*
X39763Y-19833D01*
X39725Y-19925D01*
X39724Y-20024D01*
X39724Y-20024D01*
X39700Y-19964D01*
X39700Y-19462D01*
X39700Y-19050D01*
X39287Y-19050D01*
X39225Y-19112D01*
X39224Y-19324D01*
X39262Y-19416D01*
X39333Y-19486D01*
X39425Y-19524D01*
X39524Y-19525D01*
X39637Y-19525D01*
X39700Y-19462D01*
X39700Y-19964D01*
X39695Y-19953D01*
X39547Y-19805D01*
X39354Y-19725D01*
X39146Y-19724D01*
X38953Y-19804D01*
X38805Y-19952D01*
X38725Y-20145D01*
X38724Y-20353D01*
X38804Y-20547D01*
X38952Y-20694D01*
X38990Y-20710D01*
X37500Y-20710D01*
X35079Y-20710D01*
X35283Y-20507D01*
X36042Y-20507D01*
X36042Y-20507D01*
X36157Y-20484D01*
X36157Y-20484D01*
X36255Y-20419D01*
X36462Y-20212D01*
X36462Y-20212D01*
X36527Y-20114D01*
X36545Y-20024D01*
X36554Y-20047D01*
X36702Y-20194D01*
X36895Y-20274D01*
X37103Y-20275D01*
X37297Y-20195D01*
X37444Y-20047D01*
X37500Y-19914D01*
X37554Y-20047D01*
X37702Y-20194D01*
X37895Y-20274D01*
X38103Y-20275D01*
X38297Y-20195D01*
X38444Y-20047D01*
X38524Y-19854D01*
X38525Y-19646D01*
X38445Y-19453D01*
X38297Y-19305D01*
X38104Y-19225D01*
X37896Y-19224D01*
X37703Y-19304D01*
X37555Y-19452D01*
X37499Y-19585D01*
X37445Y-19453D01*
X37297Y-19305D01*
X37104Y-19225D01*
X36896Y-19224D01*
X36703Y-19304D01*
X36555Y-19452D01*
X36550Y-19464D01*
X36550Y-17374D01*
X36721Y-17202D01*
X36895Y-17274D01*
X37103Y-17275D01*
X37297Y-17195D01*
X37444Y-17047D01*
X37500Y-16914D01*
X37554Y-17047D01*
X37702Y-17194D01*
X37895Y-17274D01*
X38103Y-17275D01*
X38297Y-17195D01*
X38444Y-17047D01*
X38524Y-16854D01*
X38525Y-16646D01*
X38445Y-16453D01*
X38297Y-16305D01*
X38104Y-16225D01*
X37896Y-16224D01*
X37703Y-16304D01*
X37555Y-16452D01*
X37499Y-16585D01*
X37445Y-16453D01*
X37297Y-16305D01*
X37104Y-16225D01*
X36896Y-16224D01*
X36703Y-16304D01*
X36555Y-16452D01*
X36506Y-16569D01*
X36037Y-17037D01*
X36024Y-17057D01*
X36025Y-16896D01*
X35945Y-16703D01*
X35797Y-16555D01*
X35604Y-16475D01*
X35396Y-16474D01*
X35203Y-16554D01*
X35055Y-16702D01*
X34999Y-16835D01*
X34945Y-16703D01*
X34797Y-16555D01*
X34604Y-16475D01*
X34396Y-16474D01*
X34203Y-16554D01*
X34055Y-16702D01*
X33999Y-16835D01*
X33945Y-16703D01*
X33797Y-16555D01*
X33604Y-16475D01*
X33396Y-16474D01*
X33203Y-16554D01*
X33055Y-16702D01*
X33002Y-16828D01*
X32960Y-16727D01*
X32867Y-16702D01*
X32797Y-16773D01*
X32797Y-16632D01*
X32772Y-16539D01*
X32575Y-16470D01*
X32367Y-16481D01*
X32227Y-16539D01*
X32202Y-16632D01*
X32500Y-16929D01*
X32797Y-16632D01*
X32797Y-16773D01*
X32570Y-17000D01*
X32867Y-17297D01*
X32960Y-17272D01*
X32999Y-17162D01*
X33054Y-17297D01*
X33200Y-17442D01*
X33200Y-17625D01*
X32797Y-18028D01*
X32797Y-17367D01*
X32500Y-17070D01*
X32429Y-17141D01*
X32429Y-17000D01*
X32132Y-16702D01*
X32039Y-16727D01*
X32003Y-16830D01*
X31960Y-16727D01*
X31867Y-16702D01*
X31797Y-16773D01*
X31797Y-16632D01*
X31772Y-16539D01*
X31575Y-16470D01*
X31367Y-16481D01*
X31227Y-16539D01*
X31202Y-16632D01*
X31500Y-16929D01*
X31797Y-16632D01*
X31797Y-16773D01*
X31570Y-17000D01*
X31867Y-17297D01*
X31960Y-17272D01*
X31996Y-17169D01*
X32039Y-17272D01*
X32132Y-17297D01*
X32429Y-17000D01*
X32429Y-17141D01*
X32202Y-17367D01*
X32227Y-17460D01*
X32424Y-17529D01*
X32632Y-17518D01*
X32772Y-17460D01*
X32797Y-17367D01*
X32797Y-18028D01*
X32625Y-18200D01*
X31797Y-18200D01*
X31797Y-17367D01*
X31500Y-17070D01*
X31202Y-17367D01*
X31227Y-17460D01*
X31424Y-17529D01*
X31632Y-17518D01*
X31772Y-17460D01*
X31797Y-17367D01*
X31797Y-18200D01*
X24785Y-18200D01*
X24797Y-18195D01*
X24944Y-18047D01*
X25024Y-17854D01*
X25025Y-17646D01*
X24945Y-17453D01*
X24797Y-17305D01*
X24664Y-17249D01*
X24778Y-17202D01*
X25537Y-17962D01*
X25537Y-17962D01*
X25635Y-18027D01*
X25750Y-18050D01*
X30250Y-18050D01*
X30250Y-18049D01*
X30364Y-18027D01*
X30364Y-18027D01*
X30462Y-17962D01*
X30712Y-17712D01*
X30712Y-17712D01*
X30777Y-17614D01*
X30799Y-17500D01*
X30800Y-17500D01*
X30800Y-17442D01*
X30944Y-17297D01*
X30997Y-17171D01*
X31039Y-17272D01*
X31132Y-17297D01*
X31429Y-17000D01*
X31132Y-16702D01*
X31039Y-16727D01*
X31000Y-16837D01*
X30945Y-16703D01*
X30797Y-16555D01*
X30604Y-16475D01*
X30396Y-16474D01*
X30203Y-16554D01*
X30055Y-16702D01*
X30025Y-16774D01*
X30025Y-16675D01*
X29987Y-16583D01*
X29916Y-16513D01*
X29824Y-16475D01*
X29795Y-16475D01*
X29777Y-16385D01*
X29712Y-16287D01*
X29712Y-16287D01*
X29462Y-16037D01*
X29364Y-15972D01*
X29250Y-15950D01*
X23250Y-15950D01*
X23135Y-15972D01*
X23037Y-16037D01*
X22789Y-16286D01*
X22789Y-16119D01*
X23119Y-15789D01*
X26250Y-15789D01*
X32250Y-15789D01*
X41380Y-15789D01*
X41710Y-16119D01*
X41710Y-16960D01*
X41624Y-16925D01*
X41525Y-16924D01*
X40875Y-16924D01*
X40783Y-16962D01*
X40713Y-17033D01*
X40675Y-17125D01*
X40674Y-17224D01*
X40674Y-17874D01*
X40712Y-17966D01*
X40783Y-18036D01*
X40875Y-18074D01*
X40974Y-18075D01*
X41624Y-18075D01*
X41710Y-18039D01*
X41710Y-18684D01*
X41654Y-18666D01*
X41583Y-18737D01*
X41583Y-18595D01*
X41552Y-18498D01*
X41337Y-18420D01*
X41109Y-18430D01*
X40947Y-18498D01*
X40916Y-18595D01*
X41250Y-18929D01*
X41583Y-18595D01*
X41583Y-18737D01*
X41320Y-19000D01*
X41654Y-19333D01*
X41710Y-19315D01*
X41710Y-20380D01*
X41710Y-20380D01*
G37*
G54D17*
X41710Y-20380D02*
X41583Y-20507D01*
X41583Y-19404D01*
X41250Y-19070D01*
X41179Y-19141D01*
X41179Y-19000D01*
X40845Y-18666D01*
X40748Y-18697D01*
X40670Y-18912D01*
X40680Y-19140D01*
X40748Y-19302D01*
X40845Y-19333D01*
X41179Y-19000D01*
X41179Y-19141D01*
X40916Y-19404D01*
X40947Y-19501D01*
X41162Y-19579D01*
X41390Y-19569D01*
X41552Y-19501D01*
X41583Y-19404D01*
X41583Y-20507D01*
X41380Y-20710D01*
X40692Y-20710D01*
X40736Y-20666D01*
X40774Y-20574D01*
X40775Y-20475D01*
X40775Y-20024D01*
X40774Y-19925D01*
X40736Y-19833D01*
X40666Y-19762D01*
X40574Y-19724D01*
X40362Y-19725D01*
X40300Y-19787D01*
X40300Y-20200D01*
X40712Y-20200D01*
X40775Y-20137D01*
X40775Y-20024D01*
X40775Y-20475D01*
X40775Y-20362D01*
X40712Y-20300D01*
X40300Y-20300D01*
X40300Y-20307D01*
X40275Y-20307D01*
X40275Y-17896D01*
X40195Y-17703D01*
X40047Y-17555D01*
X39914Y-17499D01*
X40047Y-17445D01*
X40194Y-17297D01*
X40274Y-17104D01*
X40275Y-16896D01*
X40195Y-16703D01*
X40047Y-16555D01*
X39854Y-16475D01*
X39646Y-16474D01*
X39453Y-16554D01*
X39305Y-16702D01*
X39225Y-16895D01*
X39224Y-17103D01*
X39304Y-17297D01*
X39452Y-17444D01*
X39585Y-17500D01*
X39453Y-17554D01*
X39305Y-17702D01*
X39225Y-17895D01*
X39224Y-18103D01*
X39304Y-18297D01*
X39452Y-18444D01*
X39524Y-18474D01*
X39524Y-18474D01*
X39425Y-18475D01*
X39333Y-18513D01*
X39262Y-18583D01*
X39224Y-18675D01*
X39225Y-18887D01*
X39287Y-18950D01*
X39700Y-18950D01*
X39700Y-18942D01*
X39800Y-18942D01*
X39800Y-18950D01*
X40212Y-18950D01*
X40275Y-18887D01*
X40275Y-18675D01*
X40237Y-18583D01*
X40166Y-18513D01*
X40074Y-18475D01*
X39975Y-18474D01*
X39975Y-18474D01*
X40047Y-18445D01*
X40194Y-18297D01*
X40274Y-18104D01*
X40275Y-17896D01*
X40275Y-20307D01*
X40275Y-20307D01*
X40275Y-19324D01*
X40275Y-19112D01*
X40212Y-19050D01*
X39800Y-19050D01*
X39800Y-19462D01*
X39862Y-19525D01*
X39975Y-19525D01*
X40074Y-19524D01*
X40166Y-19486D01*
X40237Y-19416D01*
X40275Y-19324D01*
X40275Y-20307D01*
X40200Y-20307D01*
X40200Y-20300D01*
X40192Y-20300D01*
X40192Y-20200D01*
X40200Y-20200D01*
X40200Y-19787D01*
X40137Y-19725D01*
X39925Y-19724D01*
X39833Y-19762D01*
X39763Y-19833D01*
X39725Y-19925D01*
X39724Y-20024D01*
X39724Y-20024D01*
X39700Y-19964D01*
X39700Y-19462D01*
X39700Y-19050D01*
X39287Y-19050D01*
X39225Y-19112D01*
X39224Y-19324D01*
X39262Y-19416D01*
X39333Y-19486D01*
X39425Y-19524D01*
X39524Y-19525D01*
X39637Y-19525D01*
X39700Y-19462D01*
X39700Y-19964D01*
X39695Y-19953D01*
X39547Y-19805D01*
X39354Y-19725D01*
X39146Y-19724D01*
X38953Y-19804D01*
X38805Y-19952D01*
X38725Y-20145D01*
X38724Y-20353D01*
X38804Y-20547D01*
X38952Y-20694D01*
X38990Y-20710D01*
X37500Y-20710D01*
X35079Y-20710D01*
X35283Y-20507D01*
X36042Y-20507D01*
X36042Y-20507D01*
X36157Y-20484D01*
X36157Y-20484D01*
X36255Y-20419D01*
X36462Y-20212D01*
X36462Y-20212D01*
X36527Y-20114D01*
X36545Y-20024D01*
X36554Y-20047D01*
X36702Y-20194D01*
X36895Y-20274D01*
X37103Y-20275D01*
X37297Y-20195D01*
X37444Y-20047D01*
X37500Y-19914D01*
X37554Y-20047D01*
X37702Y-20194D01*
X37895Y-20274D01*
X38103Y-20275D01*
X38297Y-20195D01*
X38444Y-20047D01*
X38524Y-19854D01*
X38525Y-19646D01*
X38445Y-19453D01*
X38297Y-19305D01*
X38104Y-19225D01*
X37896Y-19224D01*
X37703Y-19304D01*
X37555Y-19452D01*
X37499Y-19585D01*
X37445Y-19453D01*
X37297Y-19305D01*
X37104Y-19225D01*
X36896Y-19224D01*
X36703Y-19304D01*
X36555Y-19452D01*
X36550Y-19464D01*
X36550Y-17374D01*
X36721Y-17202D01*
X36895Y-17274D01*
X37103Y-17275D01*
X37297Y-17195D01*
X37444Y-17047D01*
X37500Y-16914D01*
X37554Y-17047D01*
X37702Y-17194D01*
X37895Y-17274D01*
X38103Y-17275D01*
X38297Y-17195D01*
X38444Y-17047D01*
X38524Y-16854D01*
X38525Y-16646D01*
X38445Y-16453D01*
X38297Y-16305D01*
X38104Y-16225D01*
X37896Y-16224D01*
X37703Y-16304D01*
X37555Y-16452D01*
X37499Y-16585D01*
X37445Y-16453D01*
X37297Y-16305D01*
X37104Y-16225D01*
X36896Y-16224D01*
X36703Y-16304D01*
X36555Y-16452D01*
X36506Y-16569D01*
X36037Y-17037D01*
X36024Y-17057D01*
X36025Y-16896D01*
X35945Y-16703D01*
X35797Y-16555D01*
X35604Y-16475D01*
X35396Y-16474D01*
X35203Y-16554D01*
X35055Y-16702D01*
X34999Y-16835D01*
X34945Y-16703D01*
X34797Y-16555D01*
X34604Y-16475D01*
X34396Y-16474D01*
X34203Y-16554D01*
X34055Y-16702D01*
X33999Y-16835D01*
X33945Y-16703D01*
X33797Y-16555D01*
X33604Y-16475D01*
X33396Y-16474D01*
X33203Y-16554D01*
X33055Y-16702D01*
X33002Y-16828D01*
X32960Y-16727D01*
X32867Y-16702D01*
X32797Y-16773D01*
X32797Y-16632D01*
X32772Y-16539D01*
X32575Y-16470D01*
X32367Y-16481D01*
X32227Y-16539D01*
X32202Y-16632D01*
X32500Y-16929D01*
X32797Y-16632D01*
X32797Y-16773D01*
X32570Y-17000D01*
X32867Y-17297D01*
X32960Y-17272D01*
X32999Y-17162D01*
X33054Y-17297D01*
X33200Y-17442D01*
X33200Y-17625D01*
X32797Y-18028D01*
X32797Y-17367D01*
X32500Y-17070D01*
X32429Y-17141D01*
X32429Y-17000D01*
X32132Y-16702D01*
X32039Y-16727D01*
X32003Y-16830D01*
X31960Y-16727D01*
X31867Y-16702D01*
X31797Y-16773D01*
X31797Y-16632D01*
X31772Y-16539D01*
X31575Y-16470D01*
X31367Y-16481D01*
X31227Y-16539D01*
X31202Y-16632D01*
X31500Y-16929D01*
X31797Y-16632D01*
X31797Y-16773D01*
X31570Y-17000D01*
X31867Y-17297D01*
X31960Y-17272D01*
X31996Y-17169D01*
X32039Y-17272D01*
X32132Y-17297D01*
X32429Y-17000D01*
X32429Y-17141D01*
X32202Y-17367D01*
X32227Y-17460D01*
X32424Y-17529D01*
X32632Y-17518D01*
X32772Y-17460D01*
X32797Y-17367D01*
X32797Y-18028D01*
X32625Y-18200D01*
X31797Y-18200D01*
X31797Y-17367D01*
X31500Y-17070D01*
X31202Y-17367D01*
X31227Y-17460D01*
X31424Y-17529D01*
X31632Y-17518D01*
X31772Y-17460D01*
X31797Y-17367D01*
X31797Y-18200D01*
X24785Y-18200D01*
X24797Y-18195D01*
X24944Y-18047D01*
X25024Y-17854D01*
X25025Y-17646D01*
X24945Y-17453D01*
X24797Y-17305D01*
X24664Y-17249D01*
X24778Y-17202D01*
X25537Y-17962D01*
X25537Y-17962D01*
X25635Y-18027D01*
X25750Y-18050D01*
X30250Y-18050D01*
X30250Y-18049D01*
X30364Y-18027D01*
X30364Y-18027D01*
X30462Y-17962D01*
X30712Y-17712D01*
X30712Y-17712D01*
X30777Y-17614D01*
X30799Y-17500D01*
X30800Y-17500D01*
X30800Y-17442D01*
X30944Y-17297D01*
X30997Y-17171D01*
X31039Y-17272D01*
X31132Y-17297D01*
X31429Y-17000D01*
X31132Y-16702D01*
X31039Y-16727D01*
X31000Y-16837D01*
X30945Y-16703D01*
X30797Y-16555D01*
X30604Y-16475D01*
X30396Y-16474D01*
X30203Y-16554D01*
X30055Y-16702D01*
X30025Y-16774D01*
X30025Y-16675D01*
X29987Y-16583D01*
X29916Y-16513D01*
X29824Y-16475D01*
X29795Y-16475D01*
X29777Y-16385D01*
X29712Y-16287D01*
X29712Y-16287D01*
X29462Y-16037D01*
X29364Y-15972D01*
X29250Y-15950D01*
X23250Y-15950D01*
X23135Y-15972D01*
X23037Y-16037D01*
X22789Y-16286D01*
X22789Y-16119D01*
X23119Y-15789D01*
X26250Y-15789D01*
X32250Y-15789D01*
X41380Y-15789D01*
X41710Y-16119D01*
X41710Y-16960D01*
X41624Y-16925D01*
X41525Y-16924D01*
X40875Y-16924D01*
X40783Y-16962D01*
X40713Y-17033D01*
X40675Y-17125D01*
X40674Y-17224D01*
X40674Y-17874D01*
X40712Y-17966D01*
X40783Y-18036D01*
X40875Y-18074D01*
X40974Y-18075D01*
X41624Y-18075D01*
X41710Y-18039D01*
X41710Y-18684D01*
X41654Y-18666D01*
X41583Y-18737D01*
X41583Y-18595D01*
X41552Y-18498D01*
X41337Y-18420D01*
X41109Y-18430D01*
X40947Y-18498D01*
X40916Y-18595D01*
X41250Y-18929D01*
X41583Y-18595D01*
X41583Y-18737D01*
X41320Y-19000D01*
X41654Y-19333D01*
X41710Y-19315D01*
X41710Y-20380D01*
M02*
